%YAML 1.1
%TAG !u! tag:unity3d.com,2011:
--- !u!114 &11400000
MonoBehaviour:
  m_ObjectHideFlags: 0
  m_CorrespondingSourceObject: {fileID: 0}
  m_PrefabInstance: {fileID: 0}
  m_PrefabAsset: {fileID: 0}
  m_GameObject: {fileID: 0}
  m_Enabled: 1
  m_EditorHideFlags: 0
  m_Script: {fileID: 11500000, guid: ac57ed122929c3944a4dae32f41606e7, type: 3}
  m_Name: 1_Q_AlarmaBaja
  m_EditorClassIdentifier: 
  title: "\xBFQu\xE9 informaci\xF3n me est\xE1 brindando el equipo?"
  answer_1: "M\xEDnima concentraci\xF3n de activaci\xF3n de alarma baja."
  answer_2: Valores de falla de sensores.
  answer_3: "Comprobaci\xF3n de Hermeticidad."
  answer_4: 
  correctAnswer: 1
