%YAML 1.1
%TAG !u! tag:unity3d.com,2011:
--- !u!114 &11400000
MonoBehaviour:
  m_ObjectHideFlags: 0
  m_CorrespondingSourceObject: {fileID: 0}
  m_PrefabInstance: {fileID: 0}
  m_PrefabAsset: {fileID: 0}
  m_GameObject: {fileID: 0}
  m_Enabled: 1
  m_EditorHideFlags: 0
  m_Script: {fileID: 11500000, guid: ac57ed122929c3944a4dae32f41606e7, type: 3}
  m_Name: Final1_A
  m_EditorClassIdentifier: 
  title: "\xBFLos valores de detecci\xF3n son aptos para comenzar la tarea? "
  answer_1: Si
  answer_2: No
  answer_3: ---
  answer_4: 
  correctAnswer: 1
