%YAML 1.1
%TAG !u! tag:unity3d.com,2011:
--- !u!1 &7683248481699938377
GameObject:
  m_ObjectHideFlags: 0
  m_CorrespondingSourceObject: {fileID: 0}
  m_PrefabInstance: {fileID: 0}
  m_PrefabAsset: {fileID: 0}
  serializedVersion: 6
  m_Component:
  - component: {fileID: 7055928291818511091}
  - component: {fileID: 6216210966925251926}
  - component: {fileID: 8187717542306341276}
  m_Layer: 0
  m_Name: PuertaNueva_Trailer
  m_TagString: Untagged
  m_Icon: {fileID: 0}
  m_NavMeshLayer: 0
  m_StaticEditorFlags: 0
  m_IsActive: 1
--- !u!4 &7055928291818511091
Transform:
  m_ObjectHideFlags: 0
  m_CorrespondingSourceObject: {fileID: 0}
  m_PrefabInstance: {fileID: 0}
  m_PrefabAsset: {fileID: 0}
  m_GameObject: {fileID: 7683248481699938377}
  m_LocalRotation: {x: -3.560745e-15, y: -0.00000008146034, z: 1, w: 0.00000004371139}
  m_LocalPosition: {x: 8.059, y: -2.51, z: -4.791}
  m_LocalScale: {x: -0.99999905, y: -0.99999905, z: -0.7296989}
  m_Children:
  - {fileID: 8219713857800191518}
  m_Father: {fileID: 0}
  m_RootOrder: 0
  m_LocalEulerAnglesHint: {x: 0, y: 0, z: 0}
--- !u!33 &6216210966925251926
MeshFilter:
  m_ObjectHideFlags: 0
  m_CorrespondingSourceObject: {fileID: 0}
  m_PrefabInstance: {fileID: 0}
  m_PrefabAsset: {fileID: 0}
  m_GameObject: {fileID: 7683248481699938377}
  m_Mesh: {fileID: -8505937692085544610, guid: 413a250c0b872834991b53de5e2f9c25, type: 3}
--- !u!23 &8187717542306341276
MeshRenderer:
  m_ObjectHideFlags: 0
  m_CorrespondingSourceObject: {fileID: 0}
  m_PrefabInstance: {fileID: 0}
  m_PrefabAsset: {fileID: 0}
  m_GameObject: {fileID: 7683248481699938377}
  m_Enabled: 1
  m_CastShadows: 1
  m_ReceiveShadows: 1
  m_DynamicOccludee: 1
  m_MotionVectors: 1
  m_LightProbeUsage: 1
  m_ReflectionProbeUsage: 1
  m_RayTracingMode: 2
  m_RayTraceProcedural: 0
  m_RenderingLayerMask: 1
  m_RendererPriority: 0
  m_Materials:
  - {fileID: -2790104157029465130, guid: 413a250c0b872834991b53de5e2f9c25, type: 3}
  m_StaticBatchInfo:
    firstSubMesh: 0
    subMeshCount: 0
  m_StaticBatchRoot: {fileID: 0}
  m_ProbeAnchor: {fileID: 0}
  m_LightProbeVolumeOverride: {fileID: 0}
  m_ScaleInLightmap: 1
  m_ReceiveGI: 1
  m_PreserveUVs: 0
  m_IgnoreNormalsForChartDetection: 0
  m_ImportantGI: 0
  m_StitchLightmapSeams: 1
  m_SelectedEditorRenderState: 3
  m_MinimumChartSize: 4
  m_AutoUVMaxDistance: 0.5
  m_AutoUVMaxAngle: 89
  m_LightmapParameters: {fileID: 0}
  m_SortingLayerID: 0
  m_SortingLayer: 0
  m_SortingOrder: 0
  m_AdditionalVertexStreams: {fileID: 0}
--- !u!1001 &8473790195218799093
PrefabInstance:
  m_ObjectHideFlags: 0
  serializedVersion: 2
  m_Modification:
    m_TransformParent: {fileID: 7055928291818511091}
    m_Modifications:
    - target: {fileID: -8679921383154817045, guid: 7c9f98d6dd4c5844b984a07489b3c95c,
        type: 3}
      propertyPath: m_RootOrder
      value: 0
      objectReference: {fileID: 0}
    - target: {fileID: -8679921383154817045, guid: 7c9f98d6dd4c5844b984a07489b3c95c,
        type: 3}
      propertyPath: m_LocalScale.x
      value: -2.9285412
      objectReference: {fileID: 0}
    - target: {fileID: -8679921383154817045, guid: 7c9f98d6dd4c5844b984a07489b3c95c,
        type: 3}
      propertyPath: m_LocalScale.y
      value: -0.76004213
      objectReference: {fileID: 0}
    - target: {fileID: -8679921383154817045, guid: 7c9f98d6dd4c5844b984a07489b3c95c,
        type: 3}
      propertyPath: m_LocalScale.z
      value: -2.7166994
      objectReference: {fileID: 0}
    - target: {fileID: -8679921383154817045, guid: 7c9f98d6dd4c5844b984a07489b3c95c,
        type: 3}
      propertyPath: m_LocalPosition.x
      value: -0.001
      objectReference: {fileID: 0}
    - target: {fileID: -8679921383154817045, guid: 7c9f98d6dd4c5844b984a07489b3c95c,
        type: 3}
      propertyPath: m_LocalPosition.y
      value: 2.255
      objectReference: {fileID: 0}
    - target: {fileID: -8679921383154817045, guid: 7c9f98d6dd4c5844b984a07489b3c95c,
        type: 3}
      propertyPath: m_LocalPosition.z
      value: 0
      objectReference: {fileID: 0}
    - target: {fileID: -8679921383154817045, guid: 7c9f98d6dd4c5844b984a07489b3c95c,
        type: 3}
      propertyPath: m_LocalRotation.w
      value: 0.50008726
      objectReference: {fileID: 0}
    - target: {fileID: -8679921383154817045, guid: 7c9f98d6dd4c5844b984a07489b3c95c,
        type: 3}
      propertyPath: m_LocalRotation.x
      value: -0.49991274
      objectReference: {fileID: 0}
    - target: {fileID: -8679921383154817045, guid: 7c9f98d6dd4c5844b984a07489b3c95c,
        type: 3}
      propertyPath: m_LocalRotation.y
      value: -0.50008726
      objectReference: {fileID: 0}
    - target: {fileID: -8679921383154817045, guid: 7c9f98d6dd4c5844b984a07489b3c95c,
        type: 3}
      propertyPath: m_LocalRotation.z
      value: -0.49991274
      objectReference: {fileID: 0}
    - target: {fileID: -8679921383154817045, guid: 7c9f98d6dd4c5844b984a07489b3c95c,
        type: 3}
      propertyPath: m_LocalEulerAnglesHint.x
      value: -89.98
      objectReference: {fileID: 0}
    - target: {fileID: -8679921383154817045, guid: 7c9f98d6dd4c5844b984a07489b3c95c,
        type: 3}
      propertyPath: m_LocalEulerAnglesHint.y
      value: -90
      objectReference: {fileID: 0}
    - target: {fileID: -8679921383154817045, guid: 7c9f98d6dd4c5844b984a07489b3c95c,
        type: 3}
      propertyPath: m_LocalEulerAnglesHint.z
      value: 0
      objectReference: {fileID: 0}
    - target: {fileID: 919132149155446097, guid: 7c9f98d6dd4c5844b984a07489b3c95c,
        type: 3}
      propertyPath: m_Name
      value: BarraSeguridad_PuertaTrailer
      objectReference: {fileID: 0}
    m_RemovedComponents: []
  m_SourcePrefab: {fileID: 100100000, guid: 7c9f98d6dd4c5844b984a07489b3c95c, type: 3}
--- !u!4 &8219713857800191518 stripped
Transform:
  m_CorrespondingSourceObject: {fileID: -8679921383154817045, guid: 7c9f98d6dd4c5844b984a07489b3c95c,
    type: 3}
  m_PrefabInstance: {fileID: 8473790195218799093}
  m_PrefabAsset: {fileID: 0}
