%YAML 1.1
%TAG !u! tag:unity3d.com,2011:
--- !u!162 &1
EditorUserSettings:
  m_ObjectHideFlags: 0
  serializedVersion: 4
  m_ConfigSettings:
    RecentlyUsedScenePath-0:
      value: 2242470311464668190f1e3615317e0305120c39630e2f223e3d2d36f0f33b36c1e838fdf53533303c10a00f073b0f3ae1453907f7120d191e1bf30a5fea1e1a05dc
      flags: 0
    RecentlyUsedScenePath-1:
      value: 22424703114646680e0b0227036c6c111b07142f1f2b233e2867083debf42d
      flags: 0
    RecentlyUsedScenePath-2:
      value: 224247031146467e151a1e23036c6c0417050c2f3e093523283d0e7cc4e9262bf6d733fbf435311f360cfb2e0b320d3ae0453a08f3050f185e3ef10f08f8021c04cb1c8b0fc61608d2
      flags: 0
    RecentlyUsedScenePath-3:
      value: 22424703114646680e0b0227036c0c2f25141738291b2522282c137df7ee3d2cfb
      flags: 0
    RecentlyUsedScenePath-4:
      value: 22424703114646680e0b0227036c0e2f3f190b23282d68252320092a
      flags: 0
    RecentlyUsedScenePath-5:
      value: 22424703114646680e0b0227036c0f2f263427072926337e38271427fb
      flags: 0
    RecentlyUsedScenePath-6:
      value: 22424703114646680e0b0227036c6c001a160b22623d28393930
      flags: 0
    RecentlyUsedScenePath-7:
      value: 22424703114646680e0b0227036c0d2f39020c39252c237e38271427fb
      flags: 0
    vcSharedLogLevel:
      value: 0d5e400f0650
      flags: 0
  m_VCAutomaticAdd: 1
  m_VCDebugCom: 0
  m_VCDebugCmd: 0
  m_VCDebugOut: 0
  m_SemanticMergeMode: 2
  m_VCShowFailedCheckout: 1
  m_VCOverwriteFailedCheckoutAssets: 1
  m_VCProjectOverlayIcons: 1
  m_VCHierarchyOverlayIcons: 1
  m_VCOtherOverlayIcons: 1
  m_VCAllowAsyncUpdate: 0
