%YAML 1.1
%TAG !u! tag:unity3d.com,2011:
--- !u!114 &11400000
MonoBehaviour:
  m_ObjectHideFlags: 0
  m_CorrespondingSourceObject: {fileID: 0}
  m_PrefabInstance: {fileID: 0}
  m_PrefabAsset: {fileID: 0}
  m_GameObject: {fileID: 0}
  m_Enabled: 1
  m_EditorHideFlags: 0
  m_Script: {fileID: 11500000, guid: ac57ed122929c3944a4dae32f41606e7, type: 3}
  m_Name: D_1
  m_EditorClassIdentifier: 
  title: "\xBFQu\xE9 est\xE1 sucediendo?"
  answer_1: "Saturaci\xF3n del sensor por atmosfera explosiva."
  answer_2: "El equipo est\xE1 informando una falla grave en la alarma."
  answer_3: "El equipo se apagar\xE1 pronto por no tener la suficiente autonom\xEDa
    de energ\xEDa"
  answer_4: 
  correctAnswer: 1
